<define-tag pagetitle>DSA-4877-1 webkit2gtk</define-tag>
<define-tag report_date>2021-3-27</define-tag>
<define-tag secrefs>CVE-2020-27918 CVE-2020-29623 CVE-2021-1765 CVE-2021-1789 CVE-2021-1799 CVE-2021-1801 CVE-2021-1870</define-tag>
<define-tag packages>webkit2gtk</define-tag>
<define-tag isvulnerable>yes</define-tag>
<define-tag fixed>yes</define-tag>
<define-tag fixed-section>no</define-tag>

#use wml::debian::security



</dl>
