<define-tag pagetitle>DSA-4653-1 firefox-esr</define-tag>
<define-tag report_date>2020-4-04</define-tag>
<define-tag secrefs>CVE-2020-6819 CVE-2020-6820</define-tag>
<define-tag packages>firefox-esr</define-tag>
<define-tag isvulnerable>yes</define-tag>
<define-tag fixed>yes</define-tag>
<define-tag fixed-section>no</define-tag>

#use wml::debian::security



</dl>
