<define-tag pagetitle>DLA-2628-1 python2.7</define-tag>
<define-tag report_date>2021-04-17</define-tag>
<define-tag secrefs>CVE-2019-16935 CVE-2021-23336</define-tag>
<define-tag packages>python2.7</define-tag>
<define-tag isvulnerable>yes</define-tag>
<define-tag fixed>yes</define-tag>
<define-tag fixed-section>no</define-tag>

#use wml::debian::security

