<define-tag pagetitle>DLA-2549-1 gdisk</define-tag>
<define-tag report_date>2021-02-11</define-tag>
<define-tag secrefs>CVE-2020-0256 CVE-2021-0308</define-tag>
<define-tag packages>gdisk</define-tag>
<define-tag isvulnerable>yes</define-tag>
<define-tag fixed>yes</define-tag>
<define-tag fixed-section>no</define-tag>

#use wml::debian::security

