<define-tag pagetitle>DLA-2651-1 python-django</define-tag>
<define-tag report_date>2021-05-06</define-tag>
<define-tag secrefs>CVE-2021-31542</define-tag>
<define-tag packages>python-django</define-tag>
<define-tag isvulnerable>yes</define-tag>
<define-tag fixed>yes</define-tag>
<define-tag fixed-section>no</define-tag>

#use wml::debian::security
