<define-tag pagetitle>DLA-1045-1 graphicsmagick</define-tag>
<define-tag report_date>2017-7-30</define-tag>
<define-tag secrefs>CVE-2017-10799 CVE-2017-11102 CVE-2017-11140 CVE-2017-11403 CVE-2017-11636 CVE-2017-11637 CVE-2017-11638 CVE-2017-11641 CVE-2017-11642 CVE-2017-11643 Bug#867077 Bug#867746 Bug#870149</define-tag>
<define-tag packages>graphicsmagick</define-tag>
<define-tag isvulnerable>yes</define-tag>
<define-tag fixed>yes</define-tag>
<define-tag fixed-section>no</define-tag>

#use wml::debian::security

