<define-tag pagetitle>DLA-844-1 libquicktime</define-tag>
<define-tag report_date>2017-3-1</define-tag>
<define-tag secrefs>CVE-2016-2399 Bug#855099</define-tag>
<define-tag packages>libquicktime</define-tag>
<define-tag isvulnerable>yes</define-tag>
<define-tag fixed>yes</define-tag>
<define-tag fixed-section>no</define-tag>

#use wml::debian::security

