<define-tag pagetitle>DLA-822-1 vim</define-tag>
<define-tag report_date>2017-2-13</define-tag>
<define-tag secrefs>CVE-2017-5953 Bug##854969</define-tag>
<define-tag packages>vim</define-tag>
<define-tag isvulnerable>yes</define-tag>
<define-tag fixed>yes</define-tag>
<define-tag fixed-section>no</define-tag>

#use wml::debian::security

