<define-tag pagetitle>DLA-2262-1 qemu</define-tag>
<define-tag report_date>2020-06-29</define-tag>
<define-tag secrefs>CVE-2020-1983 CVE-2020-13361 CVE-2020-13362 CVE-2020-13765</define-tag>
<define-tag packages>qemu</define-tag>
<define-tag isvulnerable>yes</define-tag>
<define-tag fixed>yes</define-tag>
<define-tag fixed-section>no</define-tag>

#use wml::debian::security

