<define-tag pagetitle>DLA-1493-1 xen</define-tag>
<define-tag report_date>2018-9-6</define-tag>
<define-tag secrefs>CVE-2016-4963 CVE-2017-14431</define-tag>
<define-tag packages>xen</define-tag>
<define-tag isvulnerable>yes</define-tag>
<define-tag fixed>yes</define-tag>
<define-tag fixed-section>no</define-tag>

#use wml::debian::security

