<define-tag pagetitle>DLA-1960-1 wordpress</define-tag>
<define-tag report_date>2019-10-17</define-tag>
<define-tag secrefs>CVE-2019-16217 CVE-2019-16218 CVE-2019-16219 CVE-2019-16220 CVE-2019-16221 CVE-2019-16222 CVE-2019-16223 Bug#939543</define-tag>
<define-tag packages>wordpress</define-tag>
<define-tag isvulnerable>yes</define-tag>
<define-tag fixed>yes</define-tag>
<define-tag fixed-section>no</define-tag>

#use wml::debian::security

